Running a Policy File in Julia REPL
…
 View a DataFrame or DataFrame subset just by typing the name of the DataFrame into the REPL:

   Julia code

   dfname <enter>

   df_subsetname <enter>

   🕮

   Example

      julia> df

      46900×5 DataFrame

         Row │ Enduse   EC                    Area    Year   Value   

             │ String   String                String  Int64  Float32

      ───────┼───────────────────────────────────────────────────────

           1 │ Heat     SingleFamilyDetached  ON       1985     99.0

           2 │ HW       SingleFamilyDetached  ON       1985     99.0

           3 │ OthSub   SingleFamilyDetached  ON       1985     99.0

           4 │ Refrig   SingleFamilyDetached  ON       1985     99.0

           5 │ Light    SingleFamilyDetached  ON       1985     99.0

         ⋮   │    ⋮              ⋮              ⋮       ⋮       ⋮

       46897 │ Refrig   OtherResidential      ROW      2051     99.0

       46898 │ Light    OtherResidential      ROW      2051     99.0

       46899 │ AC       OtherResidential      ROW      2051     99.0

       46900 │ OthNSub  OtherResidential      ROW      2051     99.0

                                                   46891 rows omitted
…
